{"sciezkaDocelowa":"\\\\phobos\\volume1\\PUBLIC\\PROGRAMY\\Setup\\Instalatory\\AppManager",
"aplikacje":[
{"z":"\\\\zos-srv2.intranet.rekord.com.pl\\AdminXeDev","unikalnaNazwa":"adminXE"},
{"z":"\\\\zos-srv2.intranet.rekord.com.pl\\AdminXeIntegrationServicesProxyDev","unikalnaNazwa":"adminXEIntegrationServicesProxy"}
]}